CapstoneProject
…
clusterGroups <- cutree(clusterPodcasts, k = 4)
tapply(Podcast_Dataset$`Popularity Rating`, clusterGroups)

##   [1] 1 1 1 2 2 2 2 2 3 3 3 3 3 3 3 3 4 1 1 2 4 4 1 1 1 4 4 4 4 4 4 4 4 4 4
##  [36] 4 4 4 4 4 4 4 1 2 2 3 3 3 3 3 3 3 3 3 3 3 3 3 3 3 3 3 1 3 3 3 4 4 4 4
##  [71] 4 4 4 1 1 1 1 2 2 3 1 3 3 3 3 3 1 1 2 2 3 1 3 3 3 1 1 1 2 2 3 2 2 3 3
## [106] 3 4 4 4 4 4 4 4 4 1 2 2 2 3 3 3 3 3 3 1 2 2 2 3 3 3 1 1 2 2 2 3 1 3 3
## [141] 3 3 4 4 4 4 4 4 4 4 4 1 1 1 1 2 2 3 3 3 3 3 3 3 3 3 3 3 4 4 4 4 4 4 4
## [176] 4 4 4 4 4 4 4 1 1 1 1 1 1 2 1 1 2 2 2 3 1 2 3 3

cluster1 <- subset(Podcast_Dataset, clusterGroups == 1)
cluster1[1:6]

## # A tibble: 39 x 6
##    Podcast  `Episode Name` `Running Time` `Release Date` `Episode Descrip
##    <chr>    <chr>                   <int>          <int> <chr>            
##  1 Oprahs "ALANIS MORIS             33              8 "Grammy award-wi
##  2 Oprahs Shauna Niequi             39              8 Does the life yo
##  3 Oprahs Brene Brown P             35              8 What is the real
##  4 Oprahs Mitch Albom:              38              8 Its been twenty
##  5 This Am DIY                        60              8 After four lawye
##  6 Stuff Y How Personali             60              8 For millennia, w
##  7 Stuff Y SYSK Selects:             37              8 In this week's S
##  8 Stuff Y A Lip-Smackin             54              8 Barbecue, or for
##  9 Revisio The  Basement             30              8 What is a sons 
## 10 Dan. Ca The Celtic Ho            359              8 Julius Caesar is
## # ... with 29 more rows, and 1 more variable: `Popularity Rating` <int>
…
